
CalculationMode = ae
Verbose = 40

WaveEquation = scalar_rel
SpinMode = polarized
NuclearCharge = 24

%Orbitals
"Ar"
 4 | 0 | 1 | 0
 3 | 2 | 5 | 0
%

%XCFunctionals
 lda_x_rel
 lda_c_vwn
%

ConvAbsDens = 1e-07

EigenSolverTolerance = 1e-8
ODEIntTolerance = 1e-14
